Hypoxic, Eutrophic & OA map
…
#suitable countries for seaweed
ctrys <- read_csv("~/github/seaweed/Data/sw_feasible_countries.csv")

#reading in the OHI EEZ shapefile from aurora and filtering just for EEZs while removing Antarctica
eezs <- read_sf(file.path(dir_a, "input/world_eezs/regions_2017_update.shp"), quiet = T) 

#intersect the sites with eezs
sites_moll <- sites_sf %>%
  st_transform(crs = "+proj=moll +lon_0=0 +x_0=0 +y_0=0 +datum=WGS84 +units=m +no_defs")

sites_int <- st_intersection(eezs, sites_moll)
st_set_geometry(sites_int, NULL)

## # A tibble: 720 x 22
##    type_w_ant rgn_type rgn_id rgn_name rgn_key rgn_ant_id area_km2    ID
##  * <chr>      <chr>     <int> <chr>    <chr>        <int>    <dbl> <dbl>
##  1 eez        eez         120 Antigua ATG            120   108492     2
##  2 eez        eez          16 Austral AUS             16  6956846     4
##  3 land       land         16 Austral AUS             16  7721726     5
##  4 land       land         16 Austral AUS             16  7721726     7
##  5 eez        eez          16 Austral AUS             16  6956846     8
##  6 land       land         16 Austral AUS             16  7721726     9
##  7 eez        eez          16 Austral AUS             16  6956846    10
##  8 eez        eez          16 Austral AUS             16  6956846    13
##  9 land       land         16 Austral AUS             16  7721726    14
## 10 land       land         16 Austral AUS             16  7721726    15
## #  with 710 more rows, and 14 more variables: System <chr>,
## #   Country <chr>, Decade <dbl>, Hypoxia.Current <chr>, Benthic <chr>,
## #   Fisheries <chr>, Comment <chr>, References <chr>,
## #   Classification <chr>, Photo.Notes <chr>, Video.Link <chr>,
## #   YouTube.ID <chr>, ...16 <chr>, category <chr>
…
